<?xml version="1.0"?>
<font>
  <info face="Adobe Song Std L" size="32" bold="0" italic="1" charset="" unicode="1" stretchH="100" smooth="1" aa="1" padding="1,1,1,1" spacing="1,1" outline="0"/>
  <common lineHeight="32" base="25" scaleW="256" scaleH="256" pages="1" packed="0" alphaChnl="1" redChnl="0" greenChnl="0" blueChnl="0"/>
  <pages>
    <page id="0" file="logoFont.png" />
  </pages>
  <chars count="57">
    <char id="33" x="10" y="71" width="7" height="20" xoffset="2" yoffset="6" xadvance="8" page="0" chnl="15" />
    <char id="34" x="237" y="64" width="9" height="8" xoffset="4" yoffset="5" xadvance="10" page="0" chnl="15" />
    <char id="37" x="69" y="0" width="21" height="21" xoffset="2" yoffset="6" xadvance="22" page="0" chnl="15" />
    <char id="39" x="247" y="64" width="7" height="8" xoffset="3" yoffset="5" xadvance="7" page="0" chnl="15" />
    <char id="63" x="245" y="22" width="10" height="20" xoffset="2" yoffset="6" xadvance="10" page="0" chnl="15" />
    <char id="65" x="110" y="43" width="20" height="20" xoffset="-1" yoffset="6" xadvance="19" page="0" chnl="15" />
    <char id="66" x="210" y="0" width="17" height="21" xoffset="0" yoffset="6" xadvance="16" page="0" chnl="15" />
    <char id="67" x="67" y="44" width="21" height="20" xoffset="1" yoffset="6" xadvance="19" page="0" chnl="15" />
    <char id="68" x="199" y="22" width="22" height="20" xoffset="0" yoffset="6" xadvance="21" page="0" chnl="15" />
    <char id="69" x="170" y="43" width="18" height="20" xoffset="0" yoffset="6" xadvance="16" page="0" chnl="15" />
    <char id="70" x="189" y="43" width="17" height="20" xoffset="0" yoffset="6" xadvance="14" page="0" chnl="15" />
    <char id="71" x="89" y="44" width="20" height="20" xoffset="1" yoffset="6" xadvance="20" page="0" chnl="15" />
    <char id="72" x="124" y="22" width="25" height="20" xoffset="0" yoffset="6" xadvance="22" page="0" chnl="15" />
    <char id="73" x="240" y="43" width="12" height="20" xoffset="0" yoffset="6" xadvance="9" page="0" chnl="15" />
    <char id="74" x="36" y="0" width="13" height="24" xoffset="-1" yoffset="6" xadvance="9" page="0" chnl="15" />
    <char id="75" x="222" y="22" width="22" height="20" xoffset="0" yoffset="6" xadvance="19" page="0" chnl="15" />
    <char id="76" x="207" y="43" width="16" height="20" xoffset="0" yoffset="6" xadvance="15" page="0" chnl="15" />
    <char id="77" x="65" y="23" width="29" height="20" xoffset="-1" yoffset="6" xadvance="25" page="0" chnl="15" />
    <char id="78" x="150" y="22" width="25" height="20" xoffset="0" yoffset="6" xadvance="21" page="0" chnl="15" />
    <char id="79" x="0" y="50" width="22" height="20" xoffset="1" yoffset="6" xadvance="22" page="0" chnl="15" />
    <char id="80" x="151" y="43" width="18" height="20" xoffset="0" yoffset="6" xadvance="15" page="0" chnl="15" />
    <char id="81" x="13" y="0" width="22" height="24" xoffset="1" yoffset="6" xadvance="22" page="0" chnl="15" />
    <char id="82" x="133" y="0" width="19" height="21" xoffset="0" yoffset="6" xadvance="18" page="0" chnl="15" />
    <char id="83" x="224" y="43" width="15" height="20" xoffset="0" yoffset="6" xadvance="13" page="0" chnl="15" />
    <char id="84" x="191" y="0" width="18" height="21" xoffset="2" yoffset="5" xadvance="17" page="0" chnl="15" />
    <char id="85" x="23" y="47" width="21" height="20" xoffset="3" yoffset="6" xadvance="21" page="0" chnl="15" />
    <char id="86" x="45" y="47" width="21" height="20" xoffset="2" yoffset="6" xadvance="20" page="0" chnl="15" />
    <char id="87" x="95" y="22" width="28" height="20" xoffset="2" yoffset="6" xadvance="27" page="0" chnl="15" />
    <char id="88" x="176" y="22" width="22" height="20" xoffset="-1" yoffset="6" xadvance="18" page="0" chnl="15" />
    <char id="89" x="131" y="43" width="19" height="20" xoffset="2" yoffset="6" xadvance="17" page="0" chnl="15" />
    <char id="90" x="91" y="0" width="21" height="21" xoffset="0" yoffset="5" xadvance="17" page="0" chnl="15" />
    <char id="97" x="171" y="64" width="13" height="14" xoffset="0" yoffset="12" xadvance="12" page="0" chnl="15" />
    <char id="98" x="49" y="25" width="15" height="21" xoffset="1" yoffset="5" xadvance="14" page="0" chnl="15" />
    <char id="99" x="185" y="64" width="13" height="14" xoffset="1" yoffset="12" xadvance="12" page="0" chnl="15" />
    <char id="100" x="0" y="28" width="16" height="21" xoffset="1" yoffset="5" xadvance="15" page="0" chnl="15" />
    <char id="101" x="199" y="64" width="13" height="14" xoffset="1" yoffset="12" xadvance="12" page="0" chnl="15" />
    <char id="102" x="33" y="25" width="15" height="21" xoffset="0" yoffset="5" xadvance="7" page="0" chnl="15" />
    <char id="103" x="172" y="0" width="18" height="21" xoffset="-2" yoffset="12" xadvance="12" page="0" chnl="15" />
    <char id="104" x="228" y="0" width="16" height="21" xoffset="-1" yoffset="5" xadvance="15" page="0" chnl="15" />
    <char id="105" x="0" y="71" width="9" height="20" xoffset="0" yoffset="6" xadvance="7" page="0" chnl="15" />
    <char id="106" x="0" y="0" width="12" height="27" xoffset="-3" yoffset="6" xadvance="6" page="0" chnl="15" />
    <char id="107" x="50" y="0" width="18" height="22" xoffset="-2" yoffset="5" xadvance="14" page="0" chnl="15" />
    <char id="108" x="245" y="0" width="9" height="21" xoffset="-1" yoffset="5" xadvance="6" page="0" chnl="15" />
    <char id="109" x="43" y="68" width="23" height="14" xoffset="-1" yoffset="12" xadvance="22" page="0" chnl="15" />
    <char id="110" x="124" y="64" width="15" height="14" xoffset="0" yoffset="12" xadvance="15" page="0" chnl="15" />
    <char id="111" x="140" y="64" width="15" height="14" xoffset="1" yoffset="12" xadvance="15" page="0" chnl="15" />
    <char id="112" x="113" y="0" width="19" height="21" xoffset="-2" yoffset="12" xadvance="15" page="0" chnl="15" />
    <char id="113" x="17" y="25" width="15" height="21" xoffset="1" yoffset="12" xadvance="14" page="0" chnl="15" />
    <char id="114" x="213" y="64" width="12" height="14" xoffset="0" yoffset="12" xadvance="9" page="0" chnl="15" />
    <char id="115" x="226" y="64" width="10" height="14" xoffset="1" yoffset="12" xadvance="9" page="0" chnl="15" />
    <char id="116" x="18" y="71" width="9" height="18" xoffset="2" yoffset="8" xadvance="8" page="0" chnl="15" />
    <char id="117" x="156" y="64" width="14" height="14" xoffset="2" yoffset="12" xadvance="14" page="0" chnl="15" />
    <char id="118" x="107" y="65" width="16" height="14" xoffset="0" yoffset="12" xadvance="13" page="0" chnl="15" />
    <char id="119" x="67" y="65" width="21" height="14" xoffset="1" yoffset="12" xadvance="18" page="0" chnl="15" />
    <char id="120" x="89" y="65" width="17" height="14" xoffset="-1" yoffset="12" xadvance="13" page="0" chnl="15" />
    <char id="121" x="153" y="0" width="18" height="21" xoffset="-1" yoffset="12" xadvance="13" page="0" chnl="15" />
    <char id="122" x="28" y="68" width="14" height="15" xoffset="0" yoffset="11" xadvance="11" page="0" chnl="15" />
  </chars>
</font>
